\relax 
\providecommand\hyper@newdestlabel[2]{}
\providecommand*\new@tpo@label[2]{}
\catcode `"\active 
\providecommand\HyperFirstAtBeginDocument{\AtBeginDocument}
\HyperFirstAtBeginDocument{\ifx\hyper@anchor\@undefined
\global\let\oldcontentsline\contentsline
\gdef\contentsline#1#2#3#4{\oldcontentsline{#1}{#2}{#3}}
\global\let\oldnewlabel\newlabel
\gdef\newlabel#1#2{\newlabelxx{#1}#2}
\gdef\newlabelxx#1#2#3#4#5#6{\oldnewlabel{#1}{{#2}{#3}}}
\AtEndDocument{\ifx\hyper@anchor\@undefined
\let\contentsline\oldcontentsline
\let\newlabel\oldnewlabel
\fi}
\fi}
\global\let\hyper@last\relax 
\gdef\HyperFirstAtBeginDocument#1{#1}
\providecommand\HyField@AuxAddToFields[1]{}
\providecommand\HyField@AuxAddToCoFields[2]{}
\select@language{english}
\@writefile{toc}{\select@language{english}}
\@writefile{lof}{\select@language{english}}
\@writefile{lot}{\select@language{english}}
\select@language{ngerman}
\@writefile{toc}{\select@language{ngerman}}
\@writefile{lof}{\select@language{ngerman}}
\@writefile{lot}{\select@language{ngerman}}
\@writefile{toc}{\contentsline {chapter}{\numberline {1}Aufgabenstellung}{1}{chapter.1}}
\@writefile{lof}{\addvspace {10\p@ }}
\@writefile{lot}{\addvspace {10\p@ }}
\@writefile{lol}{\addvspace {10\p@ }}
\@writefile{toc}{\contentsline {section}{\numberline {1.1}Hardware}{1}{section.1.1}}
\@writefile{toc}{\contentsline {subsection}{\numberline {1.1.1}Sensor}{1}{subsection.1.1.1}}
\@writefile{toc}{\contentsline {subsection}{\numberline {1.1.2}Raspberry Pi}{1}{subsection.1.1.2}}
\@writefile{toc}{\contentsline {subsection}{\numberline {1.1.3}Workstation}{1}{subsection.1.1.3}}
\@writefile{toc}{\contentsline {section}{\numberline {1.2}Netzwerkaufbau}{2}{section.1.2}}
\@writefile{toc}{\contentsline {subsection}{\numberline {1.2.1}Szenario 1}{2}{subsection.1.2.1}}
\@writefile{toc}{\contentsline {subsection}{\numberline {1.2.2}Szenario 2}{2}{subsection.1.2.2}}
\@writefile{toc}{\contentsline {chapter}{\numberline {2}Laboreinbindung von Gateways und Sensorknoten (Szenario 1)}{3}{chapter.2}}
\@writefile{lof}{\addvspace {10\p@ }}
\@writefile{lot}{\addvspace {10\p@ }}
\@writefile{lol}{\addvspace {10\p@ }}
\@writefile{toc}{\contentsline {section}{\numberline {2.1}Neighbor Discovery Optimization}{3}{section.2.1}}
\@writefile{toc}{\contentsline {section}{\numberline {2.2}Durchf\"uhrung}{3}{section.2.2}}
\@writefile{toc}{\contentsline {subsection}{\numberline {2.2.1}Konfiguration}{3}{subsection.2.2.1}}
\@writefile{toc}{\contentsline {subsubsection}{\nonumberline Sensor}{3}{section*.3}}
\@writefile{toc}{\contentsline {subsubsection}{\nonumberline RPi}{3}{section*.4}}
\@writefile{toc}{\contentsline {subsubsection}{\nonumberline Workstation}{3}{section*.5}}
\@writefile{toc}{\contentsline {subsection}{\numberline {2.2.2}Capture}{4}{subsection.2.2.2}}
\newlabel{cap1}{{2.2.2}{4}{Capture}{subsection.2.2.2}{}}
\@writefile{toc}{\contentsline {section}{\numberline {2.3}Analyse}{4}{section.2.3}}
\@writefile{lof}{\contentsline {figure}{\numberline {\relax 2.1}{\ignorespaces Selbstkonfiguration und Ping}}{6}{figure.2.1}}
\newlabel{s1cap1}{{\relax 2.1}{6}{Selbstkonfiguration und Ping}{figure.2.1}{}}
\@writefile{toc}{\contentsline {chapter}{\numberline {3}RPL Routing im Labornetz (Szenario 2)}{7}{chapter.3}}
\@writefile{lof}{\addvspace {10\p@ }}
\@writefile{lot}{\addvspace {10\p@ }}
\@writefile{lol}{\addvspace {10\p@ }}
\@writefile{toc}{\contentsline {section}{\numberline {3.1}RPL Routing}{7}{section.3.1}}
\@writefile{toc}{\contentsline {section}{\numberline {3.2}Durchf\"uhrung}{7}{section.3.2}}
\@writefile{toc}{\contentsline {section}{\numberline {3.3}Analyse}{7}{section.3.3}}
\@writefile{toc}{\contentsline {chapter}{\numberline {4}Datenverteilung und Messung (Szenario 2)}{8}{chapter.4}}
\@writefile{lof}{\addvspace {10\p@ }}
\@writefile{lot}{\addvspace {10\p@ }}
\@writefile{lol}{\addvspace {10\p@ }}
\@writefile{toc}{\contentsline {section}{\numberline {4.1}Constrained Application Protocol (CoAP)}{8}{section.4.1}}
\@writefile{toc}{\contentsline {section}{\numberline {4.2}Durchf\"uhrung}{8}{section.4.2}}
\@writefile{lot}{\contentsline {table}{\numberline {\relax 4.1}{\ignorespaces Ergebnisse der Messungen}}{9}{table.4.1}}
\newlabel{t3}{{\relax 4.1}{9}{Ergebnisse der Messungen}{table.4.1}{}}
\@writefile{toc}{\contentsline {section}{\numberline {4.3}Analyse}{9}{section.4.3}}
\bibstyle{dinat}
\bibdata{sample}
\bibcite{RFC6775}{{1}{2012}{{Shelby u.\,a.}}{{Shelby, Chakrabarti, Nordmark und Bormann}}}
\bibcite{RFC7252}{{2}{2014}{{Shelby u.\,a.}}{{Shelby, Hartke und Bormann}}}
\bibcite{RFC6550}{{3}{2012}{{Winter u.\,a.}}{{Winter, Thubert, Brandt, Hui, Kelsey, Levis, Pister, Struik, Vasseur und Alexander}}}
\citation{*}
\global\@namedef{scr@dte@chapter@lastmaxnumwidth}{10.00822pt}
\global\@namedef{scr@dte@section@lastmaxnumwidth}{16.9724pt}
\global\@namedef{scr@dte@subsection@lastmaxnumwidth}{24.47313pt}
